{
    "3001": {
        "name": "恒心草",
        "level": "一品药材",
        "type": "药材",
        "rank": 109,
        "主药": {
            "h_a_c": {
                "type": 0,
                "power": 1
            },
            "type": 2,
            "power": 2
        },
        "药引": {
            "h_a_c": {
                "type": 0,
                "power": 1
            },
            "type": 2,
            "power": 2
        },
        "辅药": {
            "type": 3,
            "power": 2
        }
    },
    "3002": {
        "name": "红绫草",
        "level": "一品药材",
        "type": "药材",
        "rank": 103,
        "主药": {
            "h_a_c": {
                "type": 0,
                "power": 1
            },
            "type": 2,
            "power": 2
        },
        "药引": {
            "h_a_c": {
                "type": 0,
                "power": 1
            },
            "type": 2,
            "power": 2
        },
        "辅药": {
            "type": 3,
            "power": 2
        }
    },
    "3003": {
        "name": "罗犀草",
        "level": "一品药材",
        "type": "药材",
        "rank": 103,
        "主药": {
            "h_a_c": {
                "type": -1,
                "power": 1
            },
            "type": 2,
            "power": 2
        },
        "药引": {
            "h_a_c": {
                "type": 1,
                "power": 1
            },
            "type": 2,
            "power": 2
        },
        "辅药": {
            "type": 3,
            "power": 2
        }
    },
    "3004": {
        "name": "天青花",
        "level": "一品药材",
        "type": "药材",
        "rank": 103,
        "主药": {
            "h_a_c": {
                "type": 1,
                "power": 1
            },
            "type": 2,
            "power": 2
        },
        "药引": {
            "h_a_c": {
                "type": -1,
                "power": 1
            },
            "type": 2,
            "power": 2
        },
        "辅药": {
            "type": 3,
            "power": 2
        }
    },
    "3005": {
        "name": "五柳根",
        "level": "二品药材",
        "type": "药材",
        "rank": 100,
        "主药": {
            "h_a_c": {
                "type": 0,
                "power": 2
            },
            "type": 2,
            "power": 4
        },
        "药引": {
            "h_a_c": {
                "type": 0,
                "power": 2
            },
            "type": 2,
            "power": 4
        },
        "辅药": {
            "type": 3,
            "power": 4
        }
    },
    "3006": {
        "name": "天元果",
        "level": "二品药材",
        "type": "药材",
        "rank": 100,
        "主药": {
            "h_a_c": {
                "type": 0,
                "power": 2
            },
            "type": 2,
            "power": 4
        },
        "药引": {
            "h_a_c": {
                "type": 0,
                "power": 2
            },
            "type": 2,
            "power": 4
        },
        "辅药": {
            "type": 3,
            "power": 4
        }
    },
    "3007": {
        "name": "何首乌",
        "level": "二品药材",
        "type": "药材",
        "rank": 100,
        "主药": {
            "h_a_c": {
                "type": -1,
                "power": 2
            },
            "type": 2,
            "power": 4
        },
        "药引": {
            "h_a_c": {
                "type": 1,
                "power": 2
            },
            "type": 2,
            "power": 4
        },
        "辅药": {
            "type": 3,
            "power": 4
        }
    },
    "3008": {
        "name": "夜交藤",
        "level": "二品药材",
        "type": "药材",
        "rank": 100,
        "主药": {
            "h_a_c": {
                "type": 1,
                "power": 2
            },
            "type": 2,
            "power": 4
        },
        "药引": {
            "h_a_c": {
                "type": -1,
                "power": 2
            },
            "type": 2,
            "power": 4
        },
        "辅药": {
            "type": 3,
            "power": 4
        }
    },
    "3009": {
        "name": "紫猴花",
        "level": "三品药材",
        "type": "药材",
        "rank": 97,
        "主药": {
            "h_a_c": {
                "type": 0,
                "power": 4
            },
            "type": 2,
            "power": 8
        },
        "药引": {
            "h_a_c": {
                "type": 0,
                "power": 4
            },
            "type": 2,
            "power": 8
        },
        "辅药": {
            "type": 3,
            "power": 8
        }
    },
    "3010": {
        "name": "九叶芝",
        "level": "三品药材",
        "type": "药材",
        "rank": 97,
        "主药": {
            "h_a_c": {
                "type": 0,
                "power": 4
            },
            "type": 2,
            "power": 8
        },
        "药引": {
            "h_a_c": {
                "type": 0,
                "power": 4
            },
            "type": 2,
            "power": 8
        },
        "辅药": {
            "type": 3,
            "power": 8
        }
    },
    "3011": {
        "name": "幻心草",
        "level": "三品药材",
        "type": "药材",
        "rank": 97,
        "主药": {
            "h_a_c": {
                "type": -1,
                "power": 4
            },
            "type": 2,
            "power": 8
        },
        "药引": {
            "h_a_c": {
                "type": 1,
                "power": 4
            },
            "type": 2,
            "power": 8
        },
        "辅药": {
            "type": 3,
            "power": 8
        }
    },
    "3012": {
        "name": "鬼臼草",
        "level": "三品药材",
        "type": "药材",
        "rank": 97,
        "主药": {
            "h_a_c": {
                "type": 1,
                "power": 4
            },
            "type": 2,
            "power": 8
        },
        "药引": {
            "h_a_c": {
                "type": -1,
                "power": 4
            },
            "type": 2,
            "power": 8
        },
        "辅药": {
            "type": 3,
            "power": 8
        }
    },
    "3013": {
        "name": "血莲精",
        "level": "四品药材",
        "type": "药材",
        "rank": 94,
        "主药": {
            "h_a_c": {
                "type": 0,
                "power": 8
            },
            "type": 2,
            "power": 16
        },
        "药引": {
            "h_a_c": {
                "type": 0,
                "power": 8
            },
            "type": 2,
            "power": 16
        },
        "辅药": {
            "type": 3,
            "power": 16
        }
    },
    "3014": {
        "name": "鸡冠草",
        "level": "四品药材",
        "type": "药材",
        "rank": 94,
        "主药": {
            "h_a_c": {
                "type": 0,
                "power": 8
            },
            "type": 2,
            "power": 16
        },
        "药引": {
            "h_a_c": {
                "type": 0,
                "power": 8
            },
            "type": 2,
            "power": 16
        },
        "辅药": {
            "type": 3,
            "power": 16
        }
    },
    "3015": {
        "name": "银精芝",
        "level": "四品药材",
        "type": "药材",
        "rank": 94,
        "主药": {
            "h_a_c": {
                "type": -1,
                "power": 8
            },
            "type": 2,
            "power": 16
        },
        "药引": {
            "h_a_c": {
                "type": 1,
                "power": 8
            },
            "type": 2,
            "power": 16
        },
        "辅药": {
            "type": 3,
            "power": 16
        }
    },
    "3016": {
        "name": "玉髓芝",
        "level": "四品药材",
        "type": "药材",
        "rank": 94,
        "主药": {
            "h_a_c": {
                "type": 1,
                "power": 8
            },
            "type": 2,
            "power": 16
        },
        "药引": {
            "h_a_c": {
                "type": -1,
                "power": 8
            },
            "type": 2,
            "power": 16
        },
        "辅药": {
            "type": 3,
            "power": 16
        }
    },
    "3017": {
        "name": "地心火芝",
        "level": "五品药材",
        "type": "药材",
        "rank": 91,
        "主药": {
            "h_a_c": {
                "type": 0,
                "power": 16
            },
            "type": 2,
            "power": 32
        },
        "药引": {
            "h_a_c": {
                "type": 0,
                "power": 16
            },
            "type": 2,
            "power": 32
        },
        "辅药": {
            "type": 3,
            "power": 32
        }
    },
    "3018": {
        "name": "天蝉灵叶",
        "level": "五品药材",
        "type": "药材",
        "rank": 91,
        "主药": {
            "h_a_c": {
                "type": 0,
                "power": 16
            },
            "type": 2,
            "power": 32
        },
        "药引": {
            "h_a_c": {
                "type": 0,
                "power": 16
            },
            "type": 2,
            "power": 32
        },
        "辅药": {
            "type": 3,
            "power": 32
        }
    },
    "3019": {
        "name": "雪玉骨参",
        "level": "五品药材",
        "type": "药材",
        "rank": 91,
        "主药": {
            "h_a_c": {
                "type": -1,
                "power": 16
            },
            "type": 2,
            "power": 32
        },
        "药引": {
            "h_a_c": {
                "type": 1,
                "power": 16
            },
            "type": 2,
            "power": 32
        },
        "辅药": {
            "type": 3,
            "power": 32
        }
    },
    "3020": {
        "name": "腐骨灵花",
        "level": "五品药材",
        "type": "药材",
        "rank": 91,
        "主药": {
            "h_a_c": {
                "type": 1,
                "power": 16
            },
            "type": 2,
            "power": 32
        },
        "药引": {
            "h_a_c": {
                "type": -1,
                "power": 16
            },
            "type": 2,
            "power": 32
        },
        "辅药": {
            "type": 3,
            "power": 32
        }
    },
    "3021": {
        "name": "三叶青芝",
        "level": "六品药材",
        "type": "药材",
        "rank": 88,
        "主药": {
            "h_a_c": {
                "type": 0,
                "power": 32
            },
            "type": 2,
            "power": 64
        },
        "药引": {
            "h_a_c": {
                "type": 0,
                "power": 32
            },
            "type": 2,
            "power": 64
        },
        "辅药": {
            "type": 3,
            "power": 64
        }
    },
    "3022": {
        "name": "七彩月兰",
        "level": "六品药材",
        "type": "药材",
        "rank": 88,
        "主药": {
            "h_a_c": {
                "type": 0,
                "power": 32
            },
            "type": 2,
            "power": 64
        },
        "药引": {
            "h_a_c": {
                "type": 0,
                "power": 32
            },
            "type": 2,
            "power": 64
        },
        "辅药": {
            "type": 3,
            "power": 64
        }
    },
    "3023": {
        "name": "三尾风叶",
        "level": "六品药材",
        "type": "药材",
        "rank": 88,
        "主药": {
            "h_a_c": {
                "type": -1,
                "power": 32
            },
            "type": 2,
            "power": 64
        },
        "药引": {
            "h_a_c": {
                "type": 1,
                "power": 32
            },
            "type": 2,
            "power": 64
        },
        "辅药": {
            "type": 3,
            "power": 64
        }
    },
    "3024": {
        "name": "冰灵焰草",
        "level": "六品药材",
        "type": "药材",
        "rank": 88,
        "主药": {
            "h_a_c": {
                "type": 1,
                "power": 32
            },
            "type": 2,
            "power": 64
        },
        "药引": {
            "h_a_c": {
                "type": -1,
                "power": 32
            },
            "type": 2,
            "power": 64
        },
        "辅药": {
            "type": 3,
            "power": 64
        }
    },
    "3025": {
        "name": "地心淬灵乳",
        "level": "七品药材",
        "type": "药材",
        "rank": 85,
        "主药": {
            "h_a_c": {
                "type": 0,
                "power": 64
            },
            "type": 2,
            "power": 128
        },
        "药引": {
            "h_a_c": {
                "type": 0,
                "power": 64
            },
            "type": 2,
            "power": 128
        },
        "辅药": {
            "type": 3,
            "power": 128
        }
    },
    "3026": {
        "name": "天麻翡石精",
        "level": "七品药材",
        "type": "药材",
        "rank": 85,
        "主药": {
            "h_a_c": {
                "type": 0,
                "power": 64
            },
            "type": 2,
            "power": 128
        },
        "药引": {
            "h_a_c": {
                "type": 0,
                "power": 64
            },
            "type": 2,
            "power": 128
        },
        "辅药": {
            "type": 3,
            "power": 128
        }
    },
    "3027": {
        "name": "八角玄冰草",
        "level": "七品药材",
        "type": "药材",
        "rank": 85,
        "主药": {
            "h_a_c": {
                "type": -1,
                "power": 64
            },
            "type": 2,
            "power": 128
        },
        "药引": {
            "h_a_c": {
                "type": 1,
                "power": 64
            },
            "type": 2,
            "power": 128
        },
        "辅药": {
            "type": 3,
            "power": 128
        }
    },
    "3028": {
        "name": "奇茸通天菊",
        "level": "七品药材",
        "type": "药材",
        "rank": 85,
        "主药": {
            "h_a_c": {
                "type": 1,
                "power": 64
            },
            "type": 2,
            "power": 128
        },
        "药引": {
            "h_a_c": {
                "type": -1,
                "power": 64
            },
            "type": 2,
            "power": 128
        },
        "辅药": {
            "type": 3,
            "power": 128
        }
    },
    "3029": {
        "name": "木灵三针花",
        "level": "八品药材",
        "type": "药材",
        "rank": 82,
        "主药": {
            "h_a_c": {
                "type": 0,
                "power": 128
            },
            "type": 2,
            "power": 256
        },
        "药引": {
            "h_a_c": {
                "type": 0,
                "power": 128
            },
            "type": 2,
            "power": 256
        },
        "辅药": {
            "type": 3,
            "power": 256
        }
    },
    "3030": {
        "name": "鎏鑫天晶草",
        "level": "八品药材",
        "type": "药材",
        "rank": 82,
        "主药": {
            "h_a_c": {
                "type": 0,
                "power": 128
            },
            "type": 2,
            "power": 256
        },
        "药引": {
            "h_a_c": {
                "type": 0,
                "power": 128
            },
            "type": 2,
            "power": 256
        },
        "辅药": {
            "type": 3,
            "power": 256
        }
    },
    "3031": {
        "name": "檀芒九叶花",
        "level": "八品药材",
        "type": "药材",
        "rank": 82,
        "主药": {
            "h_a_c": {
                "type": -1,
                "power": 128
            },
            "type": 2,
            "power": 256
        },
        "药引": {
            "h_a_c": {
                "type": 1,
                "power": 128
            },
            "type": 2,
            "power": 256
        },
        "辅药": {
            "type": 3,
            "power": 256
        }
    },
    "3032": {
        "name": "坎水玄冰果",
        "level": "八品药材",
        "type": "药材",
        "rank": 82,
        "主药": {
            "h_a_c": {
                "type": 1,
                "power": 128
            },
            "type": 2,
            "power": 256
        },
        "药引": {
            "h_a_c": {
                "type": -1,
                "power": 128
            },
            "type": 2,
            "power": 256
        },
        "辅药": {
            "type": 3,
            "power": 256
        }
    },
    "3033": {
        "name": "离火梧桐芝",
        "level": "九品药材",
        "type": "药材",
        "rank": 79,
        "主药": {
            "h_a_c": {
                "type": 0,
                "power": 256
            },
            "type": 2,
            "power": 512
        },
        "药引": {
            "h_a_c": {
                "type": 0,
                "power": 256
            },
            "type": 2,
            "power": 512
        },
        "辅药": {
            "type": 3,
            "power": 512
        }
    },
    "3034": {
        "name": "尘磊岩麟果",
        "level": "九品药材",
        "type": "药材",
        "rank": 79,
        "主药": {
            "h_a_c": {
                "type": 0,
                "power": 256
            },
            "type": 2,
            "power": 512
        },
        "药引": {
            "h_a_c": {
                "type": 0,
                "power": 256
            },
            "type": 2,
            "power": 512
        },
        "辅药": {
            "type": 3,
            "power": 512
        }
    },
    "3035": {
        "name": "剑魄竹笋",
        "level": "九品药材",
        "type": "药材",
        "rank": 79,
        "主药": {
            "h_a_c": {
                "type": -1,
                "power": 256
            },
            "type": 2,
            "power": 512
        },
        "药引": {
            "h_a_c": {
                "type": 1,
                "power": 256
            },
            "type": 2,
            "power": 512
        },
        "辅药": {
            "type": 3,
            "power": 512
        }
    },
    "3036": {
        "name": "明心问道果",
        "level": "九品药材",
        "type": "药材",
        "rank": 79,
        "主药": {
            "h_a_c": {
                "type": 1,
                "power": 256
            },
            "type": 2,
            "power": 512
        },
        "药引": {
            "h_a_c": {
                "type": -1,
                "power": 256
            },
            "type": 2,
            "power": 512
        },
        "辅药": {
            "type": 3,
            "power": 512
        }
    },
    "3037": {
        "name": "宁心草",
        "level": "一品药材",
        "type": "药材",
        "rank": 109,
        "主药": {
            "h_a_c": {
                "type": 0,
                "power": 1
            },
            "type": 3,
            "power": 2
        },
        "药引": {
            "h_a_c": {
                "type": 0,
                "power": 1
            },
            "type": 2,
            "power": 2
        },
        "辅药": {
            "type": 4,
            "power": 2
        }
    },
    "3038": {
        "name": "凝血草",
        "level": "一品药材",
        "type": "药材",
        "rank": 109,
        "主药": {
            "h_a_c": {
                "type": 0,
                "power": 1
            },
            "type": 3,
            "power": 2
        },
        "药引": {
            "h_a_c": {
                "type": 0,
                "power": 1
            },
            "type": 2,
            "power": 2
        },
        "辅药": {
            "type": 4,
            "power": 2
        }
    },
    "3039": {
        "name": "银月花",
        "level": "一品药材",
        "type": "药材",
        "rank": 109,
        "主药": {
            "h_a_c": {
                "type": -1,
                "power": 1
            },
            "type": 3,
            "power": 2
        },
        "药引": {
            "h_a_c": {
                "type": 1,
                "power": 1
            },
            "type": 2,
            "power": 2
        },
        "辅药": {
            "type": 4,
            "power": 2
        }
    },
    "3040": {
        "name": "宁神花",
        "level": "一品药材",
        "type": "药材",
        "rank": 109,
        "主药": {
            "h_a_c": {
                "type": 1,
                "power": 1
            },
            "type": 3,
            "power": 2
        },
        "药引": {
            "h_a_c": {
                "type": -1,
                "power": 1
            },
            "type": 2,
            "power": 2
        },
        "辅药": {
            "type": 4,
            "power": 2
        }
    },
    "3041": {
        "name": "流莹草",
        "level": "二品药材",
        "type": "药材",
        "rank": 103,
        "主药": {
            "h_a_c": {
                "type": 0,
                "power": 2
            },
            "type": 3,
            "power": 4
        },
        "药引": {
            "h_a_c": {
                "type": 0,
                "power": 2
            },
            "type": 2,
            "power": 4
        },
        "辅药": {
            "type": 4,
            "power": 4
        }
    },
    "3042": {
        "name": "蛇涎果",
        "level": "二品药材",
        "type": "药材",
        "rank": 103,
        "主药": {
            "h_a_c": {
                "type": 0,
                "power": 2
            },
            "type": 3,
            "power": 4
        },
        "药引": {
            "h_a_c": {
                "type": 0,
                "power": 2
            },
            "type": 2,
            "power": 4
        },
        "辅药": {
            "type": 4,
            "power": 4
        }
    },
    "3043": {
        "name": "夏枯草",
        "level": "二品药材",
        "type": "药材",
        "rank": 103,
        "主药": {
            "h_a_c": {
                "type": -1,
                "power": 2
            },
            "type": 3,
            "power": 4
        },
        "药引": {
            "h_a_c": {
                "type": 1,
                "power": 2
            },
            "type": 2,
            "power": 4
        },
        "辅药": {
            "type": 4,
            "power": 4
        }
    },
    "3044": {
        "name": "百草露",
        "level": "二品药材",
        "type": "药材",
        "rank": 103,
        "主药": {
            "h_a_c": {
                "type": 1,
                "power": 2
            },
            "type": 3,
            "power": 4
        },
        "药引": {
            "h_a_c": {
                "type": -1,
                "power": 2
            },
            "type": 2,
            "power": 4
        },
        "辅药": {
            "type": 4,
            "power": 4
        }
    },
    "3045": {
        "name": "轻灵草",
        "level": "三品药材",
        "type": "药材",
        "rank": 100,
        "主药": {
            "h_a_c": {
                "type": 0,
                "power": 4
            },
            "type": 3,
            "power": 8
        },
        "药引": {
            "h_a_c": {
                "type": 0,
                "power": 4
            },
            "type": 2,
            "power": 8
        },
        "辅药": {
            "type": 4,
            "power": 8
        }
    },
    "3046": {
        "name": "龙葵",
        "level": "三品药材",
        "type": "药材",
        "rank": 100,
        "主药": {
            "h_a_c": {
                "type": 0,
                "power": 4
            },
            "type": 3,
            "power": 8
        },
        "药引": {
            "h_a_c": {
                "type": 0,
                "power": 4
            },
            "type": 2,
            "power": 8
        },
        "辅药": {
            "type": 4,
            "power": 8
        }
    },
    "3047": {
        "name": "弗兰草",
        "level": "三品药材",
        "type": "药材",
        "rank": 100,
        "主药": {
            "h_a_c": {
                "type": -1,
                "power": 4
            },
            "type": 3,
            "power": 8
        },
        "药引": {
            "h_a_c": {
                "type": 1,
                "power": 4
            },
            "type": 2,
            "power": 8
        },
        "辅药": {
            "type": 4,
            "power": 8
        }
    },
    "3048": {
        "name": "玄参",
        "level": "三品药材",
        "type": "药材",
        "rank": 100,
        "主药": {
            "h_a_c": {
                "type": 1,
                "power": 4
            },
            "type": 3,
            "power": 8
        },
        "药引": {
            "h_a_c": {
                "type": -1,
                "power": 4
            },
            "type": 2,
            "power": 8
        },
        "辅药": {
            "type": 4,
            "power": 8
        }
    },
    "3049": {
        "name": "菩提花",
        "level": "四品药材",
        "type": "药材",
        "rank": 97,
        "主药": {
            "h_a_c": {
                "type": 0,
                "power": 8
            },
            "type": 3,
            "power": 16
        },
        "药引": {
            "h_a_c": {
                "type": 0,
                "power": 8
            },
            "type": 2,
            "power": 16
        },
        "辅药": {
            "type": 4,
            "power": 16
        }
    },
    "3050": {
        "name": "乌稠木",
        "level": "四品药材",
        "type": "药材",
        "rank": 97,
        "主药": {
            "h_a_c": {
                "type": 0,
                "power": 8
            },
            "type": 3,
            "power": 16
        },
        "药引": {
            "h_a_c": {
                "type": 0,
                "power": 8
            },
            "type": 2,
            "power": 16
        },
        "辅药": {
            "type": 4,
            "power": 16
        }
    },
    "3051": {
        "name": "雪凝花",
        "level": "四品药材",
        "type": "药材",
        "rank": 97,
        "主药": {
            "h_a_c": {
                "type": -1,
                "power": 8
            },
            "type": 3,
            "power": 16
        },
        "药引": {
            "h_a_c": {
                "type": 1,
                "power": 8
            },
            "type": 2,
            "power": 16
        },
        "辅药": {
            "type": 4,
            "power": 16
        }
    },
    "3052": {
        "name": "龙纹草",
        "level": "四品药材",
        "type": "药材",
        "rank": 97,
        "主药": {
            "h_a_c": {
                "type": 1,
                "power": 8
            },
            "type": 3,
            "power": 16
        },
        "药引": {
            "h_a_c": {
                "type": -1,
                "power": 8
            },
            "type": 2,
            "power": 16
        },
        "辅药": {
            "type": 4,
            "power": 16
        }
    },
    "3053": {
        "name": "天灵果",
        "level": "五品药材",
        "type": "药材",
        "rank": 94,
        "主药": {
            "h_a_c": {
                "type": 0,
                "power": 16
            },
            "type": 3,
            "power": 32
        },
        "药引": {
            "h_a_c": {
                "type": 0,
                "power": 16
            },
            "type": 2,
            "power": 32
        },
        "辅药": {
            "type": 4,
            "power": 32
        }
    },
    "3054": {
        "name": "灯心草",
        "level": "五品药材",
        "type": "药材",
        "rank": 94,
        "主药": {
            "h_a_c": {
                "type": 0,
                "power": 16
            },
            "type": 3,
            "power": 32
        },
        "药引": {
            "h_a_c": {
                "type": 0,
                "power": 16
            },
            "type": 2,
            "power": 32
        },
        "辅药": {
            "type": 4,
            "power": 32
        }
    },
    "3055": {
        "name": "穿心莲",
        "level": "五品药材",
        "type": "药材",
        "rank": 94,
        "主药": {
            "h_a_c": {
                "type": -1,
                "power": 16
            },
            "type": 3,
            "power": 32
        },
        "药引": {
            "h_a_c": {
                "type": 1,
                "power": 16
            },
            "type": 2,
            "power": 32
        },
        "辅药": {
            "type": 4,
            "power": 32
        }
    },
    "3056": {
        "name": "龙鳞果",
        "level": "五品药材",
        "type": "药材",
        "rank": 94,
        "主药": {
            "h_a_c": {
                "type": 1,
                "power": 16
            },
            "type": 3,
            "power": 32
        },
        "药引": {
            "h_a_c": {
                "type": -1,
                "power": 16
            },
            "type": 2,
            "power": 32
        },
        "辅药": {
            "type": 4,
            "power": 32
        }
    },
    "3057": {
        "name": "白沉脂",
        "level": "六品药材",
        "type": "药材",
        "rank": 91,
        "主药": {
            "h_a_c": {
                "type": 0,
                "power": 32
            },
            "type": 3,
            "power": 64
        },
        "药引": {
            "h_a_c": {
                "type": 0,
                "power": 32
            },
            "type": 2,
            "power": 64
        },
        "辅药": {
            "type": 4,
            "power": 64
        }
    },
    "3058": {
        "name": "苦曼藤",
        "level": "六品药材",
        "type": "药材",
        "rank": 91,
        "主药": {
            "h_a_c": {
                "type": 0,
                "power": 32
            },
            "type": 3,
            "power": 64
        },
        "药引": {
            "h_a_c": {
                "type": 0,
                "power": 32
            },
            "type": 2,
            "power": 64
        },
        "辅药": {
            "type": 4,
            "power": 64
        }
    },
    "3059": {
        "name": "血菩提",
        "level": "六品药材",
        "type": "药材",
        "rank": 91,
        "主药": {
            "h_a_c": {
                "type": -1,
                "power": 32
            },
            "type": 3,
            "power": 64
        },
        "药引": {
            "h_a_c": {
                "type": 1,
                "power": 32
            },
            "type": 2,
            "power": 64
        },
        "辅药": {
            "type": 4,
            "power": 64
        }
    },
    "3060": {
        "name": "诱妖草",
        "level": "六品药材",
        "type": "药材",
        "rank": 91,
        "主药": {
            "h_a_c": {
                "type": 1,
                "power": 32
            },
            "type": 3,
            "power": 64
        },
        "药引": {
            "h_a_c": {
                "type": -1,
                "power": 32
            },
            "type": 2,
            "power": 64
        },
        "辅药": {
            "type": 4,
            "power": 64
        }
    },
    "3061": {
        "name": "天问花",
        "level": "七品药材",
        "type": "药材",
        "rank": 88,
        "主药": {
            "h_a_c": {
                "type": 0,
                "power": 64
            },
            "type": 3,
            "power": 128
        },
        "药引": {
            "h_a_c": {
                "type": 0,
                "power": 64
            },
            "type": 2,
            "power": 128
        },
        "辅药": {
            "type": 4,
            "power": 128
        }
    },
    "3062": {
        "name": "渊血冥花",
        "level": "七品药材",
        "type": "药材",
        "rank": 88,
        "主药": {
            "h_a_c": {
                "type": 0,
                "power": 64
            },
            "type": 3,
            "power": 128
        },
        "药引": {
            "h_a_c": {
                "type": 0,
                "power": 64
            },
            "type": 2,
            "power": 128
        },
        "辅药": {
            "type": 4,
            "power": 128
        }
    },
    "3063": {
        "name": "芒焰果",
        "level": "七品药材",
        "type": "药材",
        "rank": 88,
        "主药": {
            "h_a_c": {
                "type": -1,
                "power": 64
            },
            "type": 3,
            "power": 128
        },
        "药引": {
            "h_a_c": {
                "type": 1,
                "power": 64
            },
            "type": 2,
            "power": 128
        },
        "辅药": {
            "type": 4,
            "power": 128
        }
    },
    "3064": {
        "name": "问道花",
        "level": "七品药材",
        "type": "药材",
        "rank": 88,
        "主药": {
            "h_a_c": {
                "type": 1,
                "power": 64
            },
            "type": 3,
            "power": 128
        },
        "药引": {
            "h_a_c": {
                "type": -1,
                "power": 64
            },
            "type": 2,
            "power": 128
        },
        "辅药": {
            "type": 4,
            "power": 128
        }
    },
    "3065": {
        "name": "阴阳黄泉花",
        "level": "八品药材",
        "type": "药材",
        "rank": 85,
        "主药": {
            "h_a_c": {
                "type": 0,
                "power": 128
            },
            "type": 3,
            "power": 256
        },
        "药引": {
            "h_a_c": {
                "type": 0,
                "power": 128
            },
            "type": 2,
            "power": 256
        },
        "辅药": {
            "type": 4,
            "power": 256
        }
    },
    "3066": {
        "name": "厉魂血珀",
        "level": "八品药材",
        "type": "药材",
        "rank": 85,
        "主药": {
            "h_a_c": {
                "type": 0,
                "power": 128
            },
            "type": 3,
            "power": 256
        },
        "药引": {
            "h_a_c": {
                "type": 0,
                "power": 128
            },
            "type": 2,
            "power": 256
        },
        "辅药": {
            "type": 4,
            "power": 256
        }
    },
    "3067": {
        "name": "浩淼水藤",
        "level": "八品药材",
        "type": "药材",
        "rank": 85,
        "主药": {
            "h_a_c": {
                "type": -1,
                "power": 128
            },
            "type": 3,
            "power": 256
        },
        "药引": {
            "h_a_c": {
                "type": 1,
                "power": 128
            },
            "type": 2,
            "power": 256
        },
        "辅药": {
            "type": 4,
            "power": 256
        }
    },
    "3068": {
        "name": "道蕴花",
        "level": "八品药材",
        "type": "药材",
        "rank": 85,
        "主药": {
            "h_a_c": {
                "type": 1,
                "power": 128
            },
            "type": 3,
            "power": 256
        },
        "药引": {
            "h_a_c": {
                "type": -1,
                "power": 128
            },
            "type": 2,
            "power": 256
        },
        "辅药": {
            "type": 4,
            "power": 256
        }
    },
    "3069": {
        "name": "太乙碧莹花",
        "level": "九品药材",
        "type": "药材",
        "rank": 82,
        "主药": {
            "h_a_c": {
                "type": 0,
                "power": 256
            },
            "type": 3,
            "power": 512
        },
        "药引": {
            "h_a_c": {
                "type": 0,
                "power": 256
            },
            "type": 2,
            "power": 512
        },
        "辅药": {
            "type": 4,
            "power": 512
        }
    },
    "3070": {
        "name": "森檀木",
        "level": "九品药材",
        "type": "药材",
        "rank": 82,
        "主药": {
            "h_a_c": {
                "type": 0,
                "power": 256
            },
            "type": 3,
            "power": 512
        },
        "药引": {
            "h_a_c": {
                "type": 0,
                "power": 256
            },
            "type": 2,
            "power": 512
        },
        "辅药": {
            "type": 4,
            "power": 512
        }
    },
    "3071": {
        "name": "炼心芝",
        "level": "九品药材",
        "type": "药材",
        "rank": 82,
        "主药": {
            "h_a_c": {
                "type": -1,
                "power": 256
            },
            "type": 3,
            "power": 512
        },
        "药引": {
            "h_a_c": {
                "type": 1,
                "power": 256
            },
            "type": 2,
            "power": 512
        },
        "辅药": {
            "type": 4,
            "power": 512
        }
    },
    "3072": {
        "name": "重元换血草",
        "level": "九品药材",
        "type": "药材",
        "rank": 82,
        "主药": {
            "h_a_c": {
                "type": 1,
                "power": 256
            },
            "type": 3,
            "power": 512
        },
        "药引": {
            "h_a_c": {
                "type": -1,
                "power": 256
            },
            "type": 2,
            "power": 512
        },
        "辅药": {
            "type": 4,
            "power": 512
        }
    },
    "3073": {
        "name": "地黄参",
        "level": "一品药材",
        "type": "药材",
        "rank": 109,
        "主药": {
            "h_a_c": {
                "type": 0,
                "power": 1
            },
            "type": 5,
            "power": 2
        },
        "药引": {
            "h_a_c": {
                "type": 0,
                "power": 1
            },
            "type": 2,
            "power": 2
        },
        "辅药": {
            "type": 6,
            "power": 2
        }
    },
    "3074": {
        "name": "火精枣",
        "level": "一品药材",
        "type": "药材",
        "rank": 109,
        "主药": {
            "h_a_c": {
                "type": 0,
                "power": 1
            },
            "type": 5,
            "power": 2
        },
        "药引": {
            "h_a_c": {
                "type": 0,
                "power": 1
            },
            "type": 2,
            "power": 2
        },
        "辅药": {
            "type": 6,
            "power": 2
        }
    },
    "3075": {
        "name": "剑芦",
        "level": "一品药材",
        "type": "药材",
        "rank": 109,
        "主药": {
            "h_a_c": {
                "type": -1,
                "power": 1
            },
            "type": 5,
            "power": 2
        },
        "药引": {
            "h_a_c": {
                "type": 1,
                "power": 1
            },
            "type": 2,
            "power": 2
        },
        "辅药": {
            "type": 6,
            "power": 2
        }
    },
    "3076": {
        "name": "七星草",
        "level": "一品药材",
        "type": "药材",
        "rank": 109,
        "主药": {
            "h_a_c": {
                "type": 1,
                "power": 1
            },
            "type": 5,
            "power": 2
        },
        "药引": {
            "h_a_c": {
                "type": -1,
                "power": 1
            },
            "type": 2,
            "power": 2
        },
        "辅药": {
            "type": 6,
            "power": 2
        }
    },
    "3077": {
        "name": "风灵花",
        "level": "二品药材",
        "type": "药材",
        "rank": 103,
        "主药": {
            "h_a_c": {
                "type": 0,
                "power": 2
            },
            "type": 5,
            "power": 4
        },
        "药引": {
            "h_a_c": {
                "type": 0,
                "power": 2
            },
            "type": 2,
            "power": 4
        },
        "辅药": {
            "type": 6,
            "power": 4
        }
    },
    "3078": {
        "name": "伏龙参",
        "level": "二品药材",
        "type": "药材",
        "rank": 103,
        "主药": {
            "h_a_c": {
                "type": 0,
                "power": 2
            },
            "type": 5,
            "power": 4
        },
        "药引": {
            "h_a_c": {
                "type": 0,
                "power": 2
            },
            "type": 2,
            "power": 4
        },
        "辅药": {
            "type": 6,
            "power": 4
        }
    },
    "3079": {
        "name": "凌风花",
        "level": "二品药材",
        "type": "药材",
        "rank": 103,
        "主药": {
            "h_a_c": {
                "type": -1,
                "power": 2
            },
            "type": 5,
            "power": 4
        },
        "药引": {
            "h_a_c": {
                "type": 1,
                "power": 2
            },
            "type": 2,
            "power": 4
        },
        "辅药": {
            "type": 6,
            "power": 4
        }
    },
    "3080": {
        "name": "补天芝",
        "level": "二品药材",
        "type": "药材",
        "rank": 103,
        "主药": {
            "h_a_c": {
                "type": 1,
                "power": 2
            },
            "type": 5,
            "power": 4
        },
        "药引": {
            "h_a_c": {
                "type": -1,
                "power": 2
            },
            "type": 2,
            "power": 4
        },
        "辅药": {
            "type": 6,
            "power": 4
        }
    },
    "3081": {
        "name": "枫香脂",
        "level": "三品药材",
        "type": "药材",
        "rank": 100,
        "主药": {
            "h_a_c": {
                "type": 0,
                "power": 4
            },
            "type": 5,
            "power": 8
        },
        "药引": {
            "h_a_c": {
                "type": 0,
                "power": 4
            },
            "type": 2,
            "power": 8
        },
        "辅药": {
            "type": 6,
            "power": 8
        }
    },
    "3082": {
        "name": "炼魂珠",
        "level": "三品药材",
        "type": "药材",
        "rank": 100,
        "主药": {
            "h_a_c": {
                "type": 0,
                "power": 4
            },
            "type": 5,
            "power": 8
        },
        "药引": {
            "h_a_c": {
                "type": 0,
                "power": 4
            },
            "type": 2,
            "power": 8
        },
        "辅药": {
            "type": 6,
            "power": 8
        }
    },
    "3083": {
        "name": "玄冰花",
        "level": "三品药材",
        "type": "药材",
        "rank": 100,
        "主药": {
            "h_a_c": {
                "type": -1,
                "power": 4
            },
            "type": 5,
            "power": 8
        },
        "药引": {
            "h_a_c": {
                "type": 1,
                "power": 4
            },
            "type": 2,
            "power": 8
        },
        "辅药": {
            "type": 6,
            "power": 8
        }
    },
    "3084": {
        "name": "炼血珠",
        "level": "三品药材",
        "type": "药材",
        "rank": 100,
        "主药": {
            "h_a_c": {
                "type": 1,
                "power": 4
            },
            "type": 5,
            "power": 8
        },
        "药引": {
            "h_a_c": {
                "type": -1,
                "power": 4
            },
            "type": 2,
            "power": 8
        },
        "辅药": {
            "type": 6,
            "power": 8
        }
    },
    "3085": {
        "name": "石龙芮",
        "level": "四品药材",
        "type": "药材",
        "rank": 97,
        "主药": {
            "h_a_c": {
                "type": 0,
                "power": 8
            },
            "type": 5,
            "power": 16
        },
        "药引": {
            "h_a_c": {
                "type": 0,
                "power": 8
            },
            "type": 2,
            "power": 16
        },
        "辅药": {
            "type": 6,
            "power": 16
        }
    },
    "3086": {
        "name": "锦地罗",
        "level": "四品药材",
        "type": "药材",
        "rank": 97,
        "主药": {
            "h_a_c": {
                "type": 0,
                "power": 8
            },
            "type": 5,
            "power": 16
        },
        "药引": {
            "h_a_c": {
                "type": 0,
                "power": 8
            },
            "type": 2,
            "power": 16
        },
        "辅药": {
            "type": 6,
            "power": 16
        }
    },
    "3087": {
        "name": "冰灵果",
        "level": "四品药材",
        "type": "药材",
        "rank": 97,
        "主药": {
            "h_a_c": {
                "type": -1,
                "power": 8
            },
            "type": 5,
            "power": 16
        },
        "药引": {
            "h_a_c": {
                "type": 1,
                "power": 8
            },
            "type": 2,
            "power": 16
        },
        "辅药": {
            "type": 6,
            "power": 16
        }
    },
    "3088": {
        "name": "玉龙参",
        "level": "四品药材",
        "type": "药材",
        "rank": 97,
        "主药": {
            "h_a_c": {
                "type": 1,
                "power": 8
            },
            "type": 5,
            "power": 16
        },
        "药引": {
            "h_a_c": {
                "type": -1,
                "power": 8
            },
            "type": 2,
            "power": 16
        },
        "辅药": {
            "type": 6,
            "power": 16
        }
    },
    "3089": {
        "name": "伴妖草",
        "level": "五品药材",
        "type": "药材",
        "rank": 94,
        "主药": {
            "h_a_c": {
                "type": 0,
                "power": 16
            },
            "type": 5,
            "power": 32
        },
        "药引": {
            "h_a_c": {
                "type": 0,
                "power": 16
            },
            "type": 2,
            "power": 32
        },
        "辅药": {
            "type": 6,
            "power": 32
        }
    },
    "3090": {
        "name": "剑心竹",
        "level": "五品药材",
        "type": "药材",
        "rank": 94,
        "主药": {
            "h_a_c": {
                "type": 0,
                "power": 16
            },
            "type": 5,
            "power": 32
        },
        "药引": {
            "h_a_c": {
                "type": 0,
                "power": 16
            },
            "type": 2,
            "power": 32
        },
        "辅药": {
            "type": 6,
            "power": 32
        }
    },
    "3091": {
        "name": "绝魂草",
        "level": "五品药材",
        "type": "药材",
        "rank": 94,
        "主药": {
            "h_a_c": {
                "type": -1,
                "power": 16
            },
            "type": 5,
            "power": 32
        },
        "药引": {
            "h_a_c": {
                "type": 1,
                "power": 16
            },
            "type": 2,
            "power": 32
        },
        "辅药": {
            "type": 6,
            "power": 32
        }
    },
    "3092": {
        "name": "月灵花",
        "level": "五品药材",
        "type": "药材",
        "rank": 94,
        "主药": {
            "h_a_c": {
                "type": 1,
                "power": 16
            },
            "type": 5,
            "power": 32
        },
        "药引": {
            "h_a_c": {
                "type": -1,
                "power": 16
            },
            "type": 2,
            "power": 32
        },
        "辅药": {
            "type": 6,
            "power": 32
        }
    },
    "3093": {
        "name": "混元果",
        "level": "六品药材",
        "type": "药材",
        "rank": 91,
        "主药": {
            "h_a_c": {
                "type": 0,
                "power": 32
            },
            "type": 5,
            "power": 64
        },
        "药引": {
            "h_a_c": {
                "type": 0,
                "power": 32
            },
            "type": 2,
            "power": 64
        },
        "辅药": {
            "type": 6,
            "power": 64
        }
    },
    "3094": {
        "name": "皇龙花",
        "level": "六品药材",
        "type": "药材",
        "rank": 91,
        "主药": {
            "h_a_c": {
                "type": 0,
                "power": 32
            },
            "type": 5,
            "power": 64
        },
        "药引": {
            "h_a_c": {
                "type": 0,
                "power": 32
            },
            "type": 2,
            "power": 64
        },
        "辅药": {
            "type": 6,
            "power": 64
        }
    },
    "3095": {
        "name": "天剑笋",
        "level": "六品药材",
        "type": "药材",
        "rank": 91,
        "主药": {
            "h_a_c": {
                "type": -1,
                "power": 32
            },
            "type": 5,
            "power": 64
        },
        "药引": {
            "h_a_c": {
                "type": 1,
                "power": 32
            },
            "type": 6,
            "power": 64
        },
        "辅药": {
            "type": 3,
            "power": 64
        }
    },
    "3096": {
        "name": "黑天麻",
        "level": "六品药材",
        "type": "药材",
        "rank": 91,
        "主药": {
            "h_a_c": {
                "type": 1,
                "power": 32
            },
            "type": 5,
            "power": 64
        },
        "药引": {
            "h_a_c": {
                "type": -1,
                "power": 32
            },
            "type": 2,
            "power": 64
        },
        "辅药": {
            "type": 6,
            "power": 64
        }
    },
    "3097": {
        "name": "血玉竹",
        "level": "七品药材",
        "type": "药材",
        "rank": 88,
        "主药": {
            "h_a_c": {
                "type": 0,
                "power": 64
            },
            "type": 5,
            "power": 128
        },
        "药引": {
            "h_a_c": {
                "type": 0,
                "power": 64
            },
            "type": 2,
            "power": 128
        },
        "辅药": {
            "type": 6,
            "power": 128
        }
    },
    "3098": {
        "name": "肠蚀草",
        "level": "七品药材",
        "type": "药材",
        "rank": 88,
        "主药": {
            "h_a_c": {
                "type": 0,
                "power": 64
            },
            "type": 5,
            "power": 128
        },
        "药引": {
            "h_a_c": {
                "type": 0,
                "power": 64
            },
            "type": 2,
            "power": 128
        },
        "辅药": {
            "type": 6,
            "power": 128
        }
    },
    "3099": {
        "name": "凤血果",
        "level": "七品药材",
        "type": "药材",
        "rank": 88,
        "主药": {
            "h_a_c": {
                "type": -1,
                "power": 64
            },
            "type": 5,
            "power": 128
        },
        "药引": {
            "h_a_c": {
                "type": 1,
                "power": 64
            },
            "type": 2,
            "power": 128
        },
        "辅药": {
            "type": 6,
            "power": 128
        }
    },
    "3100": {
        "name": "冰精芝",
        "level": "七品药材",
        "type": "药材",
        "rank": 88,
        "主药": {
            "h_a_c": {
                "type": 1,
                "power": 64
            },
            "type": 5,
            "power": 128
        },
        "药引": {
            "h_a_c": {
                "type": -1,
                "power": 64
            },
            "type": 2,
            "power": 128
        },
        "辅药": {
            "type": 6,
            "power": 128
        }
    },
    "3101": {
        "name": "狼桃",
        "level": "八品药材",
        "type": "药材",
        "rank": 85,
        "主药": {
            "h_a_c": {
                "type": 0,
                "power": 128
            },
            "type": 5,
            "power": 256
        },
        "药引": {
            "h_a_c": {
                "type": 0,
                "power": 128
            },
            "type": 2,
            "power": 256
        },
        "辅药": {
            "type": 6,
            "power": 256
        }
    },
    "3102": {
        "name": "霸王花",
        "level": "八品药材",
        "type": "药材",
        "rank": 85,
        "主药": {
            "h_a_c": {
                "type": 0,
                "power": 128
            },
            "type": 5,
            "power": 256
        },
        "药引": {
            "h_a_c": {
                "type": 0,
                "power": 128
            },
            "type": 2,
            "power": 256
        },
        "辅药": {
            "type": 6,
            "power": 256
        }
    },
    "3103": {
        "name": "太清玄灵草",
        "level": "八品药材",
        "type": "药材",
        "rank": 85,
        "主药": {
            "h_a_c": {
                "type": -1,
                "power": 128
            },
            "type": 5,
            "power": 256
        },
        "药引": {
            "h_a_c": {
                "type": 1,
                "power": 128
            },
            "type": 2,
            "power": 256
        },
        "辅药": {
            "type": 6,
            "power": 256
        }
    },
    "3104": {
        "name": "冥胎骨",
        "level": "八品药材",
        "type": "药材",
        "rank": 85,
        "主药": {
            "h_a_c": {
                "type": 1,
                "power": 128
            },
            "type": 5,
            "power": 256
        },
        "药引": {
            "h_a_c": {
                "type": -1,
                "power": 128
            },
            "type": 2,
            "power": 256
        },
        "辅药": {
            "type": 6,
            "power": 256
        }
    },
    "3105": {
        "name": "地龙干",
        "level": "九品药材",
        "type": "药材",
        "rank": 82,
        "主药": {
            "h_a_c": {
                "type": 0,
                "power": 256
            },
            "type": 5,
            "power": 512
        },
        "药引": {
            "h_a_c": {
                "type": 0,
                "power": 256
            },
            "type": 2,
            "power": 512
        },
        "辅药": {
            "type": 6,
            "power": 512
        }
    },
    "3106": {
        "name": "龙须藤",
        "level": "九品药材",
        "type": "药材",
        "rank": 82,
        "主药": {
            "h_a_c": {
                "type": 0,
                "power": 256
            },
            "type": 5,
            "power": 512
        },
        "药引": {
            "h_a_c": {
                "type": 0,
                "power": 256
            },
            "type": 2,
            "power": 512
        },
        "辅药": {
            "type": 6,
            "power": 512
        }
    },
    "3107": {
        "name": "鬼面花",
        "level": "九品药材",
        "type": "药材",
        "rank": 82,
        "主药": {
            "h_a_c": {
                "type": -1,
                "power": 256
            },
            "type": 5,
            "power": 512
        },
        "药引": {
            "h_a_c": {
                "type": 1,
                "power": 256
            },
            "type": 2,
            "power": 512
        },
        "辅药": {
            "type": 6,
            "power": 512
        }
    },
    "3108": {
        "name": "梧桐木",
        "level": "九品药材",
        "type": "药材",
        "rank": 82,
        "主药": {
            "h_a_c": {
                "type": 1,
                "power": 256
            },
            "type": 5,
            "power": 512
        },
        "药引": {
            "h_a_c": {
                "type": -1,
                "power": 256
            },
            "type": 2,
            "power": 512
        },
        "辅药": {
            "type": 6,
            "power": 512
        }
    }
}